xof 0303txt 0032

Frame Root {
  FrameTransformMatrix {
     1.000000, 0.000000, 0.000000, 0.000000,
     0.000000,-0.000000, 1.000000, 0.000000,
     0.000000, 1.000000, 0.000000, 0.000000,
     0.000000, 0.000000, 0.000000, 1.000000;;
  }
  Frame Plane {
    FrameTransformMatrix {
       1.000000, 0.000000, 0.000000, 0.000000,
       0.000000, 1.000000, 0.000000, 0.000000,
       0.000000, 0.000000, 1.000000, 0.000000,
       0.000000, 0.000000, 0.000000, 1.000000;;
    }
    Mesh { // Plane mesh
      4;
      -5.000000;-5.000000; 0.000000;,
       5.000000;-5.000000; 0.000000;,
      -5.000000; 5.000000; 0.000000;,
       5.000000; 5.000000; 0.000000;;
      1;
      4;2,3,1,0;;
      MeshNormals { // Plane normals
        1;
         0.000000; 0.000000; 1.000000;;
        1;
        4;0,0,0,0;;
      } // End of Plane normals
    } // End of Plane mesh
  } // End of Plane
} // End of Root
